922,918,920,923,918,919,922,925,920,919,925,918,923,920,925,919,919,918,925,918,922,924,921,921,921,921,925,921,922,920,920,918,923,925,918,924,923,920,924,925,920,925,924,920,920,919,925,920,490,491,491,497,494,495,496,490,495,1419,1418,1420
921,480,484,481,481,489,489,486,485,486,483,482,484,484,481,487,480,487,481,489,483,489,483,489,488,480,489,489,480,487,480,488,485,482,480,489,486,489,487,487,486,482,480,482,487,488,482,919,490,494,491,493,493,494,491,497,495,1418,1420,1419
922,489,480,483,483,483,483,483,480,487,481,486,482,482,486,484,484,487,481,488,482,488,484,480,489,487,483,487,482,483,480,489,483,487,488,485,484,483,483,482,484,487,482,485,486,482,481,919,492,497,491,496,493,492,1420,1418,1420,1419,1419,1418
922,483,487,485,486,489,480,488,482,480,485,487,486,486,481,486,482,485,485,486,484,489,485,485,384,480,481,484,482,485,488,488,488,481,482,484,488,489,489,483,484,480,482,482,482,483,488,919,492,495,497,496,491,493,495,1418,1417,1419,1420,1420
919,481,486,486,483,486,486,487,485,480,480,489,489,481,481,484,488,482,484,486,484,487,384,384,384,482,484,483,480,482,489,487,482,486,480,488,487,481,485,480,483,486,484,485,481,489,486,920,494,490,495,496,491,496,495,490,494,1417,1418,1420
921,484,481,486,485,486,481,485,384,384,489,489,481,481,484,480,489,489,489,486,482,384,384,384,384,384,384,482,484,484,480,488,480,484,384,384,481,485,487,481,481,487,484,483,484,483,487,920,491,491,492,492,490,495,495,495,491,493,1419,1420
922,485,489,486,482,485,481,485,485,384,481,481,489,485,485,480,481,482,489,487,481,384,384,384,384,384,485,488,481,482,489,480,488,384,384,384,384,384,384,482,487,487,487,482,482,481,489,918,497,490,493,494,492,495,490,495,491,491,1420,1417
923,483,480,484,487,488,480,384,384,384,487,485,487,482,486,486,484,487,481,486,481,485,384,384,384,484,489,489,487,488,485,480,486,384,384,384,384,384,384,484,480,484,484,482,486,483,483,920,495,491,490,491,492,495,492,494,491,1419,1420,1419
920,481,486,485,488,481,384,384,384,384,384,489,483,486,485,480,484,487,483,480,487,480,384,384,384,384,488,483,485,486,485,484,484,384,384,384,384,384,384,484,483,483,485,480,483,481,487,919,496,490,494,492,491,494,493,491,1417,1419,1419,1418
925,484,482,487,489,485,487,384,384,384,384,486,488,484,486,480,483,483,488,485,481,384,384,384,384,384,384,487,489,485,482,487,483,485,384,384,487,488,484,486,484,480,481,482,483,485,489,921,496,493,494,493,495,496,497,490,1417,1417,1418,1419
920,488,484,484,483,482,487,485,384,384,488,483,480,482,484,488,489,384,480,489,484,384,384,384,384,384,483,484,482,488,481,484,482,483,486,485,488,482,480,489,484,482,488,484,488,480,487,921,494,495,491,492,493,495,491,494,494,494,1418,1420
923,487,482,487,480,481,485,480,480,488,485,483,482,485,485,384,384,384,482,486,485,384,384,384,482,484,481,481,489,484,486,485,484,481,485,483,482,484,480,480,488,482,487,482,481,480,489,487,496,492,497,494,494,497,496,493,497,495,1419,1417
921,480,485,482,489,485,486,480,488,481,488,486,480,485,482,384,384,384,384,483,482,487,481,481,481,482,482,485,486,489,484,489,488,481,484,484,481,480,486,486,481,485,486,485,489,485,488,920,493,490,493,491,493,495,490,497,495,495,1418,1420
924,483,481,489,485,489,480,483,489,484,485,488,483,484,384,384,384,384,384,384,481,487,489,488,489,489,487,488,488,482,489,485,482,481,482,489,487,484,483,486,481,485,489,488,489,485,480,920,496,492,491,492,492,492,497,492,495,1418,1418,1419
925,489,482,488,489,486,488,481,485,489,482,488,486,485,482,384,384,384,484,489,485,481,484,484,484,489,487,481,486,489,481,483,483,488,484,480,485,485,489,489,484,482,485,485,485,487,487,922,497,496,497,493,491,497,497,495,495,1419,1418,1419
923,485,485,484,481,489,487,487,485,489,483,485,486,487,487,489,482,482,484,484,486,485,489,489,485,489,488,484,488,489,480,384,384,384,484,480,483,483,486,481,483,482,480,481,489,481,485,918,497,491,494,497,491,494,496,490,495,1418,1417,1417
918,481,484,482,484,489,481,480,488,484,481,488,482,489,487,482,481,487,489,482,483,489,481,486,481,481,486,489,384,489,384,384,384,384,485,481,484,482,484,487,489,482,487,486,489,482,489,923,491,492,494,495,495,495,491,496,1417,1418,1418,1420
921,486,486,489,482,487,486,487,480,486,482,487,485,482,486,486,489,482,480,484,484,486,482,485,482,487,485,384,384,384,384,384,384,384,384,488,484,486,483,483,482,483,484,480,486,488,482,921,492,495,491,490,493,490,491,492,495,1417,1418,1420
920,484,489,488,487,481,485,488,487,483,485,483,486,483,487,485,487,487,481,484,483,482,487,482,480,489,384,384,384,384,384,384,384,384,487,488,489,481,487,486,484,484,482,482,481,489,486,925,493,497,496,496,494,491,496,495,495,1420,1419,1420
924,488,485,480,488,480,485,483,486,488,480,481,485,481,487,484,489,483,487,484,489,487,487,485,480,481,384,384,384,384,384,384,481,486,481,488,483,480,484,483,483,480,487,489,484,484,484,919,492,491,491,492,491,492,497,495,1418,1417,1418,1418
924,481,483,485,482,488,488,483,480,480,485,480,484,486,485,483,488,487,483,482,486,480,480,485,489,489,483,384,384,384,480,483,489,485,484,481,482,483,489,487,483,486,488,487,482,481,485,921,492,492,493,490,493,494,490,497,1420,1420,1417,1420
921,487,489,482,487,484,486,482,481,485,486,484,483,483,486,485,486,484,482,485,488,486,487,488,483,484,480,486,488,483,480,486,488,482,483,486,488,489,489,487,489,484,481,488,483,483,482,922,492,493,495,497,496,494,490,1420,1419,1417,1419,1419
918,481,483,480,483,480,489,481,487,480,483,480,486,484,480,484,486,488,480,485,485,483,486,483,483,485,486,489,484,482,485,484,481,481,485,482,482,481,482,481,482,480,480,483,484,480,481,923,491,494,490,496,495,492,497,495,1420,1420,1418,1420
925,925,921,483,483,489,484,483,482,483,485,482,482,486,489,483,484,483,484,489,481,481,489,483,484,486,484,484,487,482,488,482,486,484,488,480,481,488,481,483,487,484,480,487,485,483,485,922,497,495,495,495,491,492,491,490,497,1417,1418,1419
919,925,919,922,922,919,920,923,920,918,919,921,923,921,921,921,921,918,919,923,919,923,923,921,922,918,921,918,923,925,924,921,924,922,923,920,925,920,919,924,918,921,922,924,919,919,921,924,494,490,497,495,495,492,495,494,1418,1418,1419,1420
